{
  "results": [
    {
      "identifier": "1174213444946916137",
      "name": "BetterHummus",
      "score": 1403.3962,
      "spot": null,
      "events": 699,
      "members": 100,
      "online": 100,
      "enabled": true,
      "owner": "1167624342616436827",
      "description": "Official Server for BetterHummus",
      "region": "us-east",
      "icon": "https://hummus-cdn.sys42.net/icons/1174213444946916137/8bbeb04a9b03043b9c60a87e63359831.png",
      "insert_date": "2017-04-13T07:52:08.8064508-07:00",
      "modified_date": "2017-04-13T07:52:08.8054509-07:00",
      "tags": ["programming","rpg games","adventure games","sports games","fps games","mmo games","puzzle games","tabletop games","simulation games","other","community","tcg games","retro games","moba games","strategy games","party games","sandbox games","language"],
      "keywords": null,
	  "invcode": "CWGl0d7"
    },
    {
      "identifier": "1170533118345637980",
      "name": "natsubot support & updates",
      "score": 887.0967,
      "spot": null,
      "events": 441,
      "members": 128,
      "online": 60,
      "enabled": true,
      "owner": "1167624342616436827",
      "description": "Official server for natsubot",
      "region": "eu-east",
      "icon": "https://hummus-cdn.sys42.net/icons/1170533118345637980/1573a7fb5f68bae3cc365628cd330df7.png",
      "insert_date": "2017-05-18T05:16:15.8428749-07:00",
      "modified_date": "2017-05-18T05:16:15.8428749-07:00",
      "tags": ["programming","rpg games","adventure games","sports games","fps games","mmo games","puzzle games","tabletop games","simulation games","other","community","tcg games","retro games","moba games","strategy games","party games","sandbox games","language"],
      "keywords": null,
	  "invcode": "natsu"
    },
	{
      "identifier": "982309872833396736",
      "name": "Hummus Infrastructure Alternate",
      "score": 887.0967,
      "spot": null,
      "events": 441,
      "members": 128,
      "online": 60,
      "enabled": true,
      "owner": "959214437198893056",
      "description": "Here we try to maintain a friendly community and still have fun! Remember that since this is hosted by LG125YT, every change in Hummus Infrastructure won’t be instantly replicated here.",
      "region": "eu-east",
      "icon": "https://hummus-cdn.sys42.net/icons/982309872833396736/8d9069b649eeb5e773e0419307c4ee3b.png",
      "insert_date": "2017-05-18T05:16:15.8428749-07:00",
      "modified_date": "2017-05-18T05:16:15.8428749-07:00",
      "tags": ["programming","rpg games","adventure games","sports games","fps games","mmo games","puzzle games","tabletop games","simulation games","other","community","tcg games","retro games","moba games","strategy games","party games","sandbox games","language"],
      "keywords": null,
	  "invcode": "zaYYOSG"
    },
	{
      "identifier": "1173755564267565634",
      "name": "Marz's Café",
      "score": 887.0967,
      "spot": null,
      "events": 441,
      "members": 128,
      "online": 60,
      "enabled": true,
      "owner": "941104535921627136",
      "description": "A place to hang out and meet new people. We have gaming and tech chats, too!",
      "region": "eu-east",
      "icon": "https://hummus-cdn.sys42.net/icons/1173755564267565634/c1fda4a115300cd5dfe40890b3f476ee.png",
      "insert_date": "2017-05-18T05:16:15.8428749-07:00",
      "modified_date": "2017-05-18T05:16:15.8428749-07:00",
      "tags": ["programming","rpg games","adventure games","sports games","fps games","mmo games","puzzle games","tabletop games","simulation games","other","community","tcg games","retro games","moba games","strategy games","party games","sandbox games","language"],
      "keywords": null,
	  "invcode": "JtNKhSy"
    },
	{
      "identifier": "1159322788865274051",
      "name": "Server Family",
      "score": 887.0967,
      "spot": null,
      "events": 441,
      "members": 128,
      "online": 60,
      "enabled": true,
      "owner": "1159307583563264046",
      "description": " ",
      "region": "eu-east",
      "icon": "https://hummus-cdn.sys42.net/icons/1159322788865274051/c015871ed94d33c7a83d51852f9744c0.png",
      "insert_date": "2017-05-18T05:16:15.8428749-07:00",
      "modified_date": "2017-05-18T05:16:15.8428749-07:00",
      "tags": ["programming","rpg games","adventure games","sports games","fps games","mmo games","puzzle games","tabletop games","simulation games","other","community","tcg games","retro games","moba games","strategy games","party games","sandbox games","language"],
      "keywords": null,
	  "invcode": "8P5nar5"
    },
	{
      "identifier": "1166469124601311562",
      "name": "THE DUCKS",
      "score": 887.0967,
      "spot": null,
      "events": 441,
      "members": 128,
      "online": 60,
      "enabled": true,
      "owner": "1163607983515136052",
      "description": "Duck",
      "region": "eu-east",
      "icon": "https://hummus-cdn.sys42.net/icons/1166469124601311562/957fbcd63f932aa54b608a73bc668445.png",
      "insert_date": "2017-05-18T05:16:15.8428749-07:00",
      "modified_date": "2017-05-18T05:16:15.8428749-07:00",
      "tags": ["programming","rpg games","adventure games","sports games","fps games","mmo games","puzzle games","tabletop games","simulation games","other","community","tcg games","retro games","moba games","strategy games","party games","sandbox games","language"],
      "keywords": null,
	  "invcode": "l6iOSts"
    }
  ],
  "from": 0,
  "size": 10,
  "total": 27595,
  "current": "/?from=0",
  "next": "/?from=10"
}